{
  "posts": [
    {
      "id": "p-89182bac-9789-4752-ab7e-fdf7569d566c",
      "folder": "00001",
      "title": "Hello, world!",
      "slug": "hello-world",
      "description": "This is my first post.",
      "visible": true,
      "tags": [
        "hello"
      ]
    },
    {
      "id": "p-893cb0b5-2abe-4f77-9ace-e75f22a8aa95",
      "folder": "00002",
      "title": "My second post",
      "slug": "my-second-post",
      "description": "I clearly don't expect to write more than 9,999 posts.",
      "visible": true,
      "tags": []
    },
    {
      "id": "p0003",
      "title": "Pagination?",
      "slug": "pagination",
      "description": "Well, I may think about it some time later.",
      "visible": false,
      "tags": []
    }
  ]
}